{
  "name": "hackathon-2018",
  "app_id": "12aad21f",
  "type": "ionic-angular",
  "integrations": {
    "cordova": {}
  },
  "proxies": [
    {
      "path": "/parkingHouses",
      "proxyUrl": "https://stadtplan.freiburg.de/viewer/pls/geojson.php"
    },
    {
      "path": "/blitzer",
      "proxyUrl": "https://stadtplan.freiburg.de/wfs/gdm_poi/poi_public?service=wfs&version=1.1.0&request=getfeature&typename=pois&outputformat=geojson&Filter=%3CFilter%3E%3CPropertyIsEqualTo%3E%3CPropertyName%3Epoityp%3C/PropertyName%3E%3CLiteral%3Eblitzer%3C/Literal%3E%3C/PropertyIsEqualTo%3E%3C/Filter%3E"
    }
  ]
}
